dump.vcd
$version Generated by VerilatedVcd $end
$timescale 1ps $end
 $scope module $rootio $end
  $var wire 1 # clk $end
  $var wire 1 $ rst $end
  $var wire 32 % writedata [31:0] $end
  $var wire 32 & dataaddr [31:0] $end
  $var wire 1 ' memwrite $end
 $upscope $end
 $scope module toplevel $end
  $var wire 32 u! WIDTH [31:0] $end
  $var wire 32 v! PCWIDTH [31:0] $end
  $var wire 1 ( clk $end
  $var wire 1 ) rst $end
  $var wire 32 * writedata [31:0] $end
  $var wire 32 + dataaddr [31:0] $end
  $var wire 1 , memwrite $end
  $var wire 8 - currentpc [7:0] $end
  $var wire 32 . instruction [31:0] $end
  $var wire 32 / datamemout [31:0] $end
  $scope module dmem $end
   $var wire 32 u! WIDTH [31:0] $end
   $var wire 1 0 clk $end
   $var wire 1 1 we $end
   $var wire 32 2 a [31:0] $end
   $var wire 32 3 wd [31:0] $end
   $var wire 32 4 rd [31:0] $end
  $upscope $end
  $scope module imem $end
   $var wire 6 5 a [5:0] $end
   $var wire 32 6 rd [31:0] $end
  $upscope $end
  $scope module mips_core $end
   $var wire 32 u! WIDTH [31:0] $end
   $var wire 32 v! PCWIDTH [31:0] $end
   $var wire 1 7 clk $end
   $var wire 1 8 rst $end
   $var wire 32 9 instruction [31:0] $end
   $var wire 32 : datamemout [31:0] $end
   $var wire 1 ; memwrite $end
   $var wire 32 < aluresult [31:0] $end
   $var wire 32 = writedata [31:0] $end
   $var wire 8 > currentpc [7:0] $end
   $var wire 6 ? op [5:0] $end
   $var wire 6 @ funct [5:0] $end
   $var wire 1 A zero $end
   $var wire 1 B jump $end
   $var wire 1 C regwrite $end
   $var wire 1 D regdst $end
   $var wire 1 E memtoreg $end
   $var wire 1 F pcsrc $end
   $var wire 1 G alusrc $end
   $var wire 3 H alucontrol [2:0] $end
   $scope module control_unit_inst $end
    $var wire 6 I op [5:0] $end
    $var wire 6 J funct [5:0] $end
    $var wire 1 K zero $end
    $var wire 1 L memtoreg $end
    $var wire 1 M memwrite $end
    $var wire 1 N regdst $end
    $var wire 1 O regwrite $end
    $var wire 1 P jump $end
    $var wire 1 Q pcsrc $end
    $var wire 1 R alusrc $end
    $var wire 3 S alucontrol [2:0] $end
    $var wire 1 T branch $end
    $var wire 2 U aluop [1:0] $end
    $scope module alu_decoder_inst $end
     $var wire 6 V funct [5:0] $end
     $var wire 2 W aluop [1:0] $end
     $var wire 3 X alucontrol [2:0] $end
    $upscope $end
    $scope module main_decoder_inst $end
     $var wire 6 Y op [5:0] $end
     $var wire 1 Z memtoreg $end
     $var wire 1 [ memwrite $end
     $var wire 1 \ branch $end
     $var wire 1 ] aluscr $end
     $var wire 1 ^ regdst $end
     $var wire 1 _ regwrite $end
     $var wire 1 ` jump $end
     $var wire 2 a aluop [1:0] $end
     $var wire 9 b controlsig [8:0] $end
    $upscope $end
   $upscope $end
   $scope module datapath_inst $end
    $var wire 32 u! WIDTH [31:0] $end
    $var wire 32 v! PCWIDTH [31:0] $end
    $var wire 1 c clk $end
    $var wire 1 d rst $end
    $var wire 1 e jump $end
    $var wire 1 f regwrite $end
    $var wire 1 g regdst $end
    $var wire 1 h memtoreg $end
    $var wire 1 i memwrite $end
    $var wire 3 j alucontrol [2:0] $end
    $var wire 1 k pcsrc $end
    $var wire 1 l alusrc $end
    $var wire 6 m op [5:0] $end
    $var wire 6 n funct [5:0] $end
    $var wire 1 o zero $end
    $var wire 32 p instruction [31:0] $end
    $var wire 8 q currentpc [7:0] $end
    $var wire 32 r aluresult [31:0] $end
    $var wire 32 s regout2 [31:0] $end
    $var wire 32 t datamemout [31:0] $end
    $var wire 32 u pcplus4 [31:0] $end
    $var wire 8 v branchmuxout [7:0] $end
    $var wire 8 w jumpmuxout [7:0] $end
    $var wire 32 x pcbranchout [31:0] $end
    $var wire 5 y wa3 [4:0] $end
    $var wire 32 z immext [31:0] $end
    $var wire 32 { ls2out [31:0] $end
    $var wire 32 | regout1 [31:0] $end
    $var wire 32 } alumuxout [31:0] $end
    $var wire 32 ~ writedatareg [31:0] $end
    $var wire 32 !! currentpc_32 [31:0] $end
    $var wire 32 "! pcjump [31:0] $end
    $var wire 32 #! jumpls2out [31:0] $end
    $scope module alu $end
     $var wire 32 u! WIDTH [31:0] $end
     $var wire 32 $! a [31:0] $end
     $var wire 32 %! b [31:0] $end
     $var wire 3 &! f [2:0] $end
     $var wire 32 '! y [31:0] $end
     $var wire 1 (! zero $end
    $upscope $end
    $scope module alumux $end
     $var wire 32 u! WIDTH [31:0] $end
     $var wire 32 )! a [31:0] $end
     $var wire 32 *! b [31:0] $end
     $var wire 1 +! sel $end
     $var wire 32 ,! y [31:0] $end
    $upscope $end
    $scope module branchmux $end
     $var wire 32 v! WIDTH [31:0] $end
     $var wire 8 -! a [7:0] $end
     $var wire 8 .! b [7:0] $end
     $var wire 1 /! sel $end
     $var wire 8 0! y [7:0] $end
    $upscope $end
    $scope module jumpls2_inst $end
     $var wire 32 u! WIDTH [31:0] $end
     $var wire 32 1! a [31:0] $end
     $var wire 32 2! y [31:0] $end
    $upscope $end
    $scope module jumpmux $end
     $var wire 32 v! WIDTH [31:0] $end
     $var wire 8 3! a [7:0] $end
     $var wire 8 4! b [7:0] $end
     $var wire 1 5! sel $end
     $var wire 8 6! y [7:0] $end
    $upscope $end
    $scope module pc $end
     $var wire 32 v! WIDTH [31:0] $end
     $var wire 1 7! clk $end
     $var wire 1 8! rst $end
     $var wire 8 9! d [7:0] $end
     $var wire 8 :! q [7:0] $end
    $upscope $end
    $scope module pcbranch $end
     $var wire 32 u! WIDTH [31:0] $end
     $var wire 32 ;! a [31:0] $end
     $var wire 32 <! b [31:0] $end
     $var wire 32 =! y [31:0] $end
    $upscope $end
    $scope module pcplus4_inst $end
     $var wire 32 u! WIDTH [31:0] $end
     $var wire 32 >! a [31:0] $end
     $var wire 32 ?! b [31:0] $end
     $var wire 32 @! y [31:0] $end
    $upscope $end
    $scope module resultmux $end
     $var wire 32 u! WIDTH [31:0] $end
     $var wire 32 A! a [31:0] $end
     $var wire 32 B! b [31:0] $end
     $var wire 1 C! sel $end
     $var wire 32 D! y [31:0] $end
    $upscope $end
    $scope module rf $end
     $var wire 32 u! WIDTH [31:0] $end
     $var wire 1 E! clk $end
     $var wire 1 F! we3 $end
     $var wire 5 G! ra1 [4:0] $end
     $var wire 5 H! ra2 [4:0] $end
     $var wire 5 I! wa3 [4:0] $end
     $var wire 32 J! wd3 [31:0] $end
     $var wire 32 K! rd1 [31:0] $end
     $var wire 32 L! rd2 [31:0] $end
     $var wire 32 M! rf[0] [31:0] $end
     $var wire 32 N! rf[1] [31:0] $end
     $var wire 32 O! rf[2] [31:0] $end
     $var wire 32 P! rf[3] [31:0] $end
     $var wire 32 Q! rf[4] [31:0] $end
     $var wire 32 R! rf[5] [31:0] $end
     $var wire 32 S! rf[6] [31:0] $end
     $var wire 32 T! rf[7] [31:0] $end
     $var wire 32 U! rf[8] [31:0] $end
     $var wire 32 V! rf[9] [31:0] $end
     $var wire 32 W! rf[10] [31:0] $end
     $var wire 32 X! rf[11] [31:0] $end
     $var wire 32 Y! rf[12] [31:0] $end
     $var wire 32 Z! rf[13] [31:0] $end
     $var wire 32 [! rf[14] [31:0] $end
     $var wire 32 \! rf[15] [31:0] $end
     $var wire 32 ]! rf[16] [31:0] $end
     $var wire 32 ^! rf[17] [31:0] $end
     $var wire 32 _! rf[18] [31:0] $end
     $var wire 32 `! rf[19] [31:0] $end
     $var wire 32 a! rf[20] [31:0] $end
     $var wire 32 b! rf[21] [31:0] $end
     $var wire 32 c! rf[22] [31:0] $end
     $var wire 32 d! rf[23] [31:0] $end
     $var wire 32 e! rf[24] [31:0] $end
     $var wire 32 f! rf[25] [31:0] $end
     $var wire 32 g! rf[26] [31:0] $end
     $var wire 32 h! rf[27] [31:0] $end
     $var wire 32 i! rf[28] [31:0] $end
     $var wire 32 j! rf[29] [31:0] $end
     $var wire 32 k! rf[30] [31:0] $end
     $var wire 32 l! rf[31] [31:0] $end
    $upscope $end
    $scope module se $end
     $var wire 32 w! WIDTH [31:0] $end
     $var wire 32 u! OUTWIDTH [31:0] $end
     $var wire 16 m! a [15:0] $end
     $var wire 32 n! y [31:0] $end
    $upscope $end
    $scope module signextls2 $end
     $var wire 32 u! WIDTH [31:0] $end
     $var wire 32 o! a [31:0] $end
     $var wire 32 p! y [31:0] $end
    $upscope $end
    $scope module wregmux $end
     $var wire 32 x! WIDTH [31:0] $end
     $var wire 5 q! a [4:0] $end
     $var wire 5 r! b [4:0] $end
     $var wire 1 s! sel $end
     $var wire 5 t! y [4:0] $end
    $upscope $end
   $upscope $end
  $upscope $end
 $upscope $end
$enddefinitions $end


#0
1#
1$
b00000000000000000000000000001010 %
b00000000000000000000000000001010 &
0'
1(
1)
b00000000000000000000000000001010 *
b00000000000000000000000000001010 +
0,
b00000000 -
b00100000000100000000000000001010 .
b00000000000000000000000000000000 /
10
01
b00000000000000000000000000001010 2
b00000000000000000000000000001010 3
b00000000000000000000000000000000 4
b000000 5
b00100000000100000000000000001010 6
17
18
b00100000000100000000000000001010 9
b00000000000000000000000000000000 :
0;
b00000000000000000000000000001010 <
b00000000000000000000000000001010 =
b00000000 >
b001000 ?
b001010 @
0A
0B
1C
0D
0E
0F
1G
b010 H
b001000 I
b001010 J
0K
0L
0M
0N
1O
0P
0Q
1R
b010 S
0T
b00 U
b001010 V
b00 W
b010 X
b001000 Y
0Z
0[
0\
1]
0^
1_
0`
b00 a
b000101000 b
1c
1d
0e
1f
0g
0h
0i
b010 j
0k
1l
b001000 m
b001010 n
0o
b00100000000100000000000000001010 p
b00000000 q
b00000000000000000000000000001010 r
b00000000000000000000000000001010 s
b00000000000000000000000000000000 t
b00000000000000000000000000000100 u
b00000100 v
b00000100 w
b00000000000000000000000000101100 x
b10000 y
b00000000000000000000000000001010 z
b00000000000000000000000000101000 {
b00000000000000000000000000000000 |
b00000000000000000000000000001010 }
b00000000000000000000000000001010 ~
b00000000000000000000000000000000 !!
b00000000010000000000000000101000 "!
b00000000010000000000000000101000 #!
b00000000000000000000000000000000 $!
b00000000000000000000000000001010 %!
b010 &!
b00000000000000000000000000001010 '!
0(!
b00000000000000000000000000001010 )!
b00000000000000000000000000001010 *!
1+!
b00000000000000000000000000001010 ,!
b00000100 -!
b00101100 .!
0/!
b00000100 0!
b00000000000100000000000000001010 1!
b00000000010000000000000000101000 2!
b00000100 3!
b00101000 4!
05!
b00000100 6!
17!
18!
b00000100 9!
b00000000 :!
b00000000000000000000000000101000 ;!
b00000000000000000000000000000100 <!
b00000000000000000000000000101100 =!
b00000000000000000000000000000000 >!
b00000000000000000000000000000100 ?!
b00000000000000000000000000000100 @!
b00000000000000000000000000001010 A!
b00000000000000000000000000000000 B!
0C!
b00000000000000000000000000001010 D!
1E!
1F!
b00000 G!
b10000 H!
b10000 I!
b00000000000000000000000000001010 J!
b00000000000000000000000000000000 K!
b00000000000000000000000000001010 L!
b00000000000000000000000000000000 M!
b00000000000000000000000000000000 N!
b00000000000000000000000000000000 O!
b00000000000000000000000000000000 P!
b00000000000000000000000000000000 Q!
b00000000000000000000000000000000 R!
b00000000000000000000000000000000 S!
b00000000000000000000000000000000 T!
b00000000000000000000000000000000 U!
b00000000000000000000000000000000 V!
b00000000000000000000000000000000 W!
b00000000000000000000000000000000 X!
b00000000000000000000000000000000 Y!
b00000000000000000000000000000000 Z!
b00000000000000000000000000000000 [!
b00000000000000000000000000000000 \!
b00000000000000000000000000001010 ]!
b00000000000000000000000000000000 ^!
b00000000000000000000000000000000 _!
b00000000000000000000000000000000 `!
b00000000000000000000000000000000 a!
b00000000000000000000000000000000 b!
b00000000000000000000000000000000 c!
b00000000000000000000000000000000 d!
b00000000000000000000000000000000 e!
b00000000000000000000000000000000 f!
b00000000000000000000000000000000 g!
b00000000000000000000000000000000 h!
b00000000000000000000000000000000 i!
b00000000000000000000000000000000 j!
b00000000000000000000000000000000 k!
b00000000000000000000000000000000 l!
b0000000000001010 m!
b00000000000000000000000000001010 n!
b00000000000000000000000000001010 o!
b00000000000000000000000000101000 p!
b10000 q!
b00000 r!
0s!
b10000 t!
b00000000000000000000000000100000 u!
b00000000000000000000000000001000 v!
b00000000000000000000000000010000 w!
b00000000000000000000000000000101 x!
#5000
0#
0(
00
07
0c
07!
0E!
#10000
1#
0$
b00000000000000000000000000000000 %
b00000000000000000000000000000101 &
1(
0)
b00000000000000000000000000000000 *
b00000000000000000000000000000101 +
b00000100 -
b00100000000100010000000000000101 .
10
b00000000000000000000000000000101 2
b00000000000000000000000000000000 3
b000001 5
b00100000000100010000000000000101 6
17
08
b00100000000100010000000000000101 9
b00000000000000000000000000000101 <
b00000000000000000000000000000000 =
b00000100 >
b000101 @
b000101 J
b000101 V
1c
0d
b000101 n
b00100000000100010000000000000101 p
b00000100 q
b00000000000000000000000000000101 r
b00000000000000000000000000000000 s
b00000000000000000000000000001000 u
b00001000 v
b00001000 w
b00000000000000000000000000011100 x
b10001 y
b00000000000000000000000000000101 z
b00000000000000000000000000010100 {
b00000000000000000000000000000101 }
b00000000000000000000000000000101 ~
b00000000000000000000000000000100 !!
b00000000010001000000000000010100 "!
b00000000010001000000000000010100 #!
b00000000000000000000000000000101 %!
b00000000000000000000000000000101 '!
b00000000000000000000000000000000 )!
b00000000000000000000000000000101 *!
b00000000000000000000000000000101 ,!
b00001000 -!
b00011100 .!
b00001000 0!
b00000000000100010000000000000101 1!
b00000000010001000000000000010100 2!
b00001000 3!
b00010100 4!
b00001000 6!
17!
08!
b00001000 9!
b00000100 :!
b00000000000000000000000000010100 ;!
b00000000000000000000000000001000 <!
b00000000000000000000000000011100 =!
b00000000000000000000000000000100 >!
b00000000000000000000000000001000 @!
b00000000000000000000000000000101 A!
b00000000000000000000000000000101 D!
1E!
b10001 H!
b10001 I!
b00000000000000000000000000000101 J!
b00000000000000000000000000000000 L!
b0000000000000101 m!
b00000000000000000000000000000101 n!
b00000000000000000000000000000101 o!
b00000000000000000000000000010100 p!
b10001 q!
b10001 t!
#15000
0#
0(
00
07
0c
07!
0E!
#20000
1#
b00000000000000000000000000000101 %
b00000000000000000000000000001111 &
1(
b00000000000000000000000000000101 *
b00000000000000000000000000001111 +
b00001000 -
b00000010000100010100000000100000 .
10
b00000000000000000000000000001111 2
b00000000000000000000000000000101 3
b000010 5
b00000010000100010100000000100000 6
17
b00000010000100010100000000100000 9
b00000000000000000000000000001111 <
b00000000000000000000000000000101 =
b00001000 >
b000000 ?
b100000 @
1D
0G
b000000 I
b100000 J
1N
0R
b10 U
b100000 V
b10 W
b000000 Y
0]
1^
b10 a
b000011010 b
1c
1g
0l
b000000 m
b100000 n
b00000010000100010100000000100000 p
b00001000 q
b00000000000000000000000000001111 r
b00000000000000000000000000000101 s
b00000000000000000000000000001100 u
b00001100 v
b00001100 w
b00000000000000010000000010001100 x
b01000 y
b00000000000000000100000000100000 z
b00000000000000010000000010000000 {
b00000000000000000000000000001010 |
b00000000000000000000000000001111 ~
b00000000000000000000000000001000 !!
b00001000010001010000000010000000 "!
b00001000010001010000000010000000 #!
b00000000000000000000000000001010 $!
b00000000000000000000000000001111 '!
b00000000000000000000000000000101 )!
b00000000000000000100000000100000 *!
0+!
b00001100 -!
b10001100 .!
b00001100 0!
b00000010000100010100000000100000 1!
b00001000010001010000000010000000 2!
b00001100 3!
b10000000 4!
b00001100 6!
17!
b00001100 9!
b00001000 :!
b00000000000000010000000010000000 ;!
b00000000000000000000000000001100 <!
b00000000000000010000000010001100 =!
b00000000000000000000000000001000 >!
b00000000000000000000000000001100 @!
b00000000000000000000000000001111 A!
b00000000000000000000000000001111 D!
1E!
b10000 G!
b01000 I!
b00000000000000000000000000001111 J!
b00000000000000000000000000001010 K!
b00000000000000000000000000000101 L!
b00000000000000000000000000000101 ^!
b0100000000100000 m!
b00000000000000000100000000100000 n!
b00000000000000000100000000100000 o!
b00000000000000010000000010000000 p!
b01000 r!
1s!
b01000 t!
#25000
0#
0(
00
07
0c
07!
0E!
#30000
1#
b00000000000000000000000000000101 &
1(
b00000000000000000000000000000101 +
b00001100 -
b00000010000100010100100000100010 .
10
b00000000000000000000000000000101 2
b000011 5
b00000010000100010100100000100010 6
17
b00000010000100010100100000100010 9
b00000000000000000000000000000101 <
b00001100 >
b100010 @
b110 H
b100010 J
b110 S
b100010 V
b110 X
1c
b110 j
b100010 n
b00000010000100010100100000100010 p
b00001100 q
b00000000000000000000000000000101 r
b00000000000000000000000000010000 u
b00010000 v
b00010000 w
b00000000000000010010000010011000 x
b01001 y
b00000000000000000100100000100010 z
b00000000000000010010000010001000 {
b00000000000000000000000000000101 ~
b00000000000000000000000000001100 !!
b00001000010001010010000010001000 "!
b00001000010001010010000010001000 #!
b110 &!
b00000000000000000000000000000101 '!
b00000000000000000100100000100010 *!
b00010000 -!
b10011000 .!
b00010000 0!
b00000010000100010100100000100010 1!
b00001000010001010010000010001000 2!
b00010000 3!
b10001000 4!
b00010000 6!
17!
b00010000 9!
b00001100 :!
b00000000000000010010000010001000 ;!
b00000000000000000000000000010000 <!
b00000000000000010010000010011000 =!
b00000000000000000000000000001100 >!
b00000000000000000000000000010000 @!
b00000000000000000000000000000101 A!
b00000000000000000000000000000101 D!
1E!
b01001 I!
b00000000000000000000000000000101 J!
b00000000000000000000000000001111 U!
b0100100000100010 m!
b00000000000000000100100000100010 n!
b00000000000000000100100000100010 o!
b00000000000000010010000010001000 p!
b01001 r!
b01001 t!
#35000
0#
0(
00
07
0c
07!
0E!
#40000
1#
b00000000000000000000000000000000 &
1(
b00000000000000000000000000000000 +
b00010000 -
b00000010000100010101000000100100 .
10
b00000000000000000000000000000000 2
b000100 5
b00000010000100010101000000100100 6
17
b00000010000100010101000000100100 9
b00000000000000000000000000000000 <
b00010000 >
b100100 @
1A
b000 H
b100100 J
1K
b000 S
b100100 V
b000 X
1c
b000 j
b100100 n
1o
b00000010000100010101000000100100 p
b00010000 q
b00000000000000000000000000000000 r
b00000000000000000000000000010100 u
b00010100 v
b00010100 w
b00000000000000010100000010100100 x
b01010 y
b00000000000000000101000000100100 z
b00000000000000010100000010010000 {
b00000000000000000000000000000000 ~
b00000000000000000000000000010000 !!
b00001000010001010100000010010000 "!
b00001000010001010100000010010000 #!
b000 &!
b00000000000000000000000000000000 '!
1(!
b00000000000000000101000000100100 *!
b00010100 -!
b10100100 .!
b00010100 0!
b00000010000100010101000000100100 1!
b00001000010001010100000010010000 2!
b00010100 3!
b10010000 4!
b00010100 6!
17!
b00010100 9!
b00010000 :!
b00000000000000010100000010010000 ;!
b00000000000000000000000000010100 <!
b00000000000000010100000010100100 =!
b00000000000000000000000000010000 >!
b00000000000000000000000000010100 @!
b00000000000000000000000000000000 A!
b00000000000000000000000000000000 D!
1E!
b01010 I!
b00000000000000000000000000000000 J!
b00000000000000000000000000000101 V!
b0101000000100100 m!
b00000000000000000101000000100100 n!
b00000000000000000101000000100100 o!
b00000000000000010100000010010000 p!
b01010 r!
b01010 t!
#45000
0#
0(
00
07
0c
07!
0E!
#50000
1#
b00000000000000000000000000001111 &
1(
b00000000000000000000000000001111 +
b00010100 -
b00000010000100010101100000100101 .
10
b00000000000000000000000000001111 2
b000101 5
b00000010000100010101100000100101 6
17
b00000010000100010101100000100101 9
b00000000000000000000000000001111 <
b00010100 >
b100101 @
0A
b001 H
b100101 J
0K
b001 S
b100101 V
b001 X
1c
b001 j
b100101 n
0o
b00000010000100010101100000100101 p
b00010100 q
b00000000000000000000000000001111 r
b00000000000000000000000000011000 u
b00011000 v
b00011000 w
b00000000000000010110000010101100 x
b01011 y
b00000000000000000101100000100101 z
b00000000000000010110000010010100 {
b00000000000000000000000000001111 ~
b00000000000000000000000000010100 !!
b00001000010001010110000010010100 "!
b00001000010001010110000010010100 #!
b001 &!
b00000000000000000000000000001111 '!
0(!
b00000000000000000101100000100101 *!
b00011000 -!
b10101100 .!
b00011000 0!
b00000010000100010101100000100101 1!
b00001000010001010110000010010100 2!
b00011000 3!
b10010100 4!
b00011000 6!
17!
b00011000 9!
b00010100 :!
b00000000000000010110000010010100 ;!
b00000000000000000000000000011000 <!
b00000000000000010110000010101100 =!
b00000000000000000000000000010100 >!
b00000000000000000000000000011000 @!
b00000000000000000000000000001111 A!
b00000000000000000000000000001111 D!
1E!
b01011 I!
b00000000000000000000000000001111 J!
b0101100000100101 m!
b00000000000000000101100000100101 n!
b00000000000000000101100000100101 o!
b00000000000000010110000010010100 p!
b01011 r!
b01011 t!
#55000
0#
0(
00
07
0c
07!
0E!
#60000
1#
b00000000000000000000000000001010 %
b00000000000000000000000000000001 &
1(
b00000000000000000000000000001010 *
b00000000000000000000000000000001 +
b00011000 -
b00000010001100000110000000101010 .
10
b00000000000000000000000000000001 2
b00000000000000000000000000001010 3
b000110 5
b00000010001100000110000000101010 6
17
b00000010001100000110000000101010 9
b00000000000000000000000000000001 <
b00000000000000000000000000001010 =
b00011000 >
b101010 @
b111 H
b101010 J
b111 S
b101010 V
b111 X
1c
b111 j
b101010 n
b00000010001100000110000000101010 p
b00011000 q
b00000000000000000000000000000001 r
b00000000000000000000000000001010 s
b00000000000000000000000000011100 u
b00011100 v
b00011100 w
b00000000000000011000000011000100 x
b01100 y
b00000000000000000110000000101010 z
b00000000000000011000000010101000 {
b00000000000000000000000000000101 |
b00000000000000000000000000001010 }
b00000000000000000000000000000001 ~
b00000000000000000000000000011000 !!
b00001000110000011000000010101000 "!
b00001000110000011000000010101000 #!
b00000000000000000000000000000101 $!
b00000000000000000000000000001010 %!
b111 &!
b00000000000000000000000000000001 '!
b00000000000000000000000000001010 )!
b00000000000000000110000000101010 *!
b00000000000000000000000000001010 ,!
b00011100 -!
b11000100 .!
b00011100 0!
b00000010001100000110000000101010 1!
b00001000110000011000000010101000 2!
b00011100 3!
b10101000 4!
b00011100 6!
17!
b00011100 9!
b00011000 :!
b00000000000000011000000010101000 ;!
b00000000000000000000000000011100 <!
b00000000000000011000000011000100 =!
b00000000000000000000000000011000 >!
b00000000000000000000000000011100 @!
b00000000000000000000000000000001 A!
b00000000000000000000000000000001 D!
1E!
b10001 G!
b10000 H!
b01100 I!
b00000000000000000000000000000001 J!
b00000000000000000000000000000101 K!
b00000000000000000000000000001010 L!
b00000000000000000000000000001111 X!
b0110000000101010 m!
b00000000000000000110000000101010 n!
b00000000000000000110000000101010 o!
b00000000000000011000000010101000 p!
b10000 q!
b01100 r!
b01100 t!
#65000
0#
0(
00
07
0c
07!
0E!
#70000
1#
b00000000000000000000000000000000 %
1(
b00000000000000000000000000000000 *
b00011100 -
b00010001100000000000000000000010 .
10
b00000000000000000000000000000000 3
b000111 5
b00010001100000000000000000000010 6
17
b00010001100000000000000000000010 9
b00000000000000000000000000000000 =
b00011100 >
b000100 ?
b000010 @
0C
0D
b110 H
b000100 I
b000010 J
0N
0O
b110 S
1T
b01 U
b000010 V
b01 W
b110 X
b000100 Y
1\
0^
0_
b01 a
b001000001 b
1c
0f
0g
b110 j
b000100 m
b000010 n
b00010001100000000000000000000010 p
b00011100 q
b00000000000000000000000000000000 s
b00000000000000000000000000100000 u
b00100000 v
b00100000 w
b00000000000000000000000000101000 x
b00000 y
b00000000000000000000000000000010 z
b00000000000000000000000000001000 {
b00000000000000000000000000000001 |
b00000000000000000000000000000000 }
b00000000000000000000000000011100 !!
b00000110000000000000000000001000 "!
b00000110000000000000000000001000 #!
b00000000000000000000000000000001 $!
b00000000000000000000000000000000 %!
b110 &!
b00000000000000000000000000000000 )!
b00000000000000000000000000000010 *!
b00000000000000000000000000000000 ,!
b00100000 -!
b00101000 .!
b00100000 0!
b00000001100000000000000000000010 1!
b00000110000000000000000000001000 2!
b00100000 3!
b00001000 4!
b00100000 6!
17!
b00100000 9!
b00011100 :!
b00000000000000000000000000001000 ;!
b00000000000000000000000000100000 <!
b00000000000000000000000000101000 =!
b00000000000000000000000000011100 >!
b00000000000000000000000000100000 @!
1E!
0F!
b01100 G!
b00000 H!
b00000 I!
b00000000000000000000000000000001 K!
b00000000000000000000000000000000 L!
b00000000000000000000000000000001 Y!
b0000000000000010 m!
b00000000000000000000000000000010 n!
b00000000000000000000000000000010 o!
b00000000000000000000000000001000 p!
b00000 q!
b00000 r!
0s!
b00000 t!
#75000
0#
0(
00
07
0c
07!
0E!
#80000
1#
b00000000000000000000000000000000 &
1(
b00000000000000000000000000000000 +
b00100000 -
b00001000000000000000000000001100 .
10
b00000000000000000000000000000000 2
b001000 5
b00001000000000000000000000001100 6
17
b00001000000000000000000000001100 9
b00000000000000000000000000000000 <
b00100000 >
b000010 ?
b001100 @
1A
1B
b010 H
b000010 I
b001100 J
1K
1P
b010 S
0T
b00 U
b001100 V
b00 W
b010 X
b000010 Y
0\
1`
b00 a
b000000100 b
1c
1e
b010 j
b000010 m
b001100 n
1o
b00001000000000000000000000001100 p
b00100000 q
b00000000000000000000000000000000 r
b00000000000000000000000000100100 u
b00100100 v
b00110000 w
b00000000000000000000000001010100 x
b00000000000000000000000000001100 z
b00000000000000000000000000110000 {
b00000000000000000000000000000000 |
b00000000000000000000000000000000 ~
b00000000000000000000000000100000 !!
b00000000000000000000000000110000 "!
b00000000000000000000000000110000 #!
b00000000000000000000000000000000 $!
b010 &!
b00000000000000000000000000000000 '!
1(!
b00000000000000000000000000001100 *!
b00100100 -!
b01010100 .!
b00100100 0!
b00000000000000000000000000001100 1!
b00000000000000000000000000110000 2!
b00100100 3!
b00110000 4!
15!
b00110000 6!
17!
b00110000 9!
b00100000 :!
b00000000000000000000000000110000 ;!
b00000000000000000000000000100100 <!
b00000000000000000000000001010100 =!
b00000000000000000000000000100000 >!
b00000000000000000000000000100100 @!
b00000000000000000000000000000000 A!
b00000000000000000000000000000000 D!
1E!
b00000 G!
b00000000000000000000000000000000 J!
b00000000000000000000000000000000 K!
b0000000000001100 m!
b00000000000000000000000000001100 n!
b00000000000000000000000000001100 o!
b00000000000000000000000000110000 p!
#85000
0#
0(
00
07
0c
07!
0E!
#90000
1#
b00000000000000000000000000001111 %
b00000000000000000000000000001100 &
1'
1(
b00000000000000000000000000001111 *
b00000000000000000000000000001100 +
1,
b00110000 -
b10101100000010000000000000001100 .
10
11
b00000000000000000000000000001100 2
b00000000000000000000000000001111 3
b001100 5
b10101100000010000000000000001100 6
17
b10101100000010000000000000001100 9
1;
b00000000000000000000000000001100 <
b00000000000000000000000000001111 =
b00110000 >
b101011 ?
0A
0B
1G
b101011 I
0K
1M
0P
1R
b101011 Y
1[
1]
0`
b010100000 b
1c
0e
1i
1l
b101011 m
0o
b10101100000010000000000000001100 p
b00110000 q
b00000000000000000000000000001100 r
b00000000000000000000000000001111 s
b00000000000000000000000000110100 u
b00110100 v
b00110100 w
b00000000000000000000000001100100 x
b01000 y
b00000000000000000000000000001100 }
b00000000000000000000000000001100 ~
b00000000000000000000000000110000 !!
b00000000001000000000000000110000 "!
b00000000001000000000000000110000 #!
b00000000000000000000000000001100 %!
b00000000000000000000000000001100 '!
0(!
b00000000000000000000000000001111 )!
1+!
b00000000000000000000000000001100 ,!
b00110100 -!
b01100100 .!
b00110100 0!
b00000000000010000000000000001100 1!
b00000000001000000000000000110000 2!
b00110100 3!
05!
b00110100 6!
17!
b00110100 9!
b00110000 :!
b00000000000000000000000000110100 <!
b00000000000000000000000001100100 =!
b00000000000000000000000000110000 >!
b00000000000000000000000000110100 @!
b00000000000000000000000000001100 A!
b00000000000000000000000000001100 D!
1E!
b01000 H!
b01000 I!
b00000000000000000000000000001100 J!
b00000000000000000000000000001111 L!
b01000 q!
b01000 t!
#95000
0#
0(
00
07
0c
07!
0E!
#100000
1#
b00000000000000000000000000000000 %
0'
1(
b00000000000000000000000000000000 *
0,
b00110100 -
b10001100000100100000000000001100 .
b00000000000000000000000000001111 /
10
01
b00000000000000000000000000000000 3
b00000000000000000000000000001111 4
b001101 5
b10001100000100100000000000001100 6
17
b10001100000100100000000000001100 9
b00000000000000000000000000001111 :
0;
b00000000000000000000000000000000 =
b00110100 >
b100011 ?
1C
1E
b100011 I
1L
0M
1O
b100011 Y
1Z
0[
1_
b100101000 b
1c
1f
1h
0i
b100011 m
b10001100000100100000000000001100 p
b00110100 q
b00000000000000000000000000000000 s
b00000000000000000000000000001111 t
b00000000000000000000000000111000 u
b00111000 v
b00111000 w
b00000000000000000000000001101000 x
b10010 y
b00000000000000000000000000001111 ~
b00000000000000000000000000110100 !!
b00000000010010000000000000110000 "!
b00000000010010000000000000110000 #!
b00000000000000000000000000000000 )!
b00111000 -!
b01101000 .!
b00111000 0!
b00000000000100100000000000001100 1!
b00000000010010000000000000110000 2!
b00111000 3!
b00111000 6!
17!
b00111000 9!
b00110100 :!
b00000000000000000000000000111000 <!
b00000000000000000000000001101000 =!
b00000000000000000000000000110100 >!
b00000000000000000000000000111000 @!
b00000000000000000000000000001111 B!
1C!
b00000000000000000000000000001111 D!
1E!
1F!
b10010 H!
b10010 I!
b00000000000000000000000000001111 J!
b00000000000000000000000000000000 L!
b10010 q!
b10010 t!
#105000
0#
0(
00
07
0c
07!
0E!
